{
  "users": [
    {
      "email": "cleitinho@gmail.com",
      "password": "$2a$10$YAnCWHjgxUo9RhkA62mbfukJjAth3B85Eq2RopkHsXbX7JAIYn0Nq",
      "name": "Cleiton Soares",
      "nickname": "XxCleitinhoGodxX",
      "bio": "testando bio 1",
      "avatar": "https://picsum.photos/200",
      "id": 1
    },
    {
      "email": "joca123@gmail.com",
      "password": "$2a$10$5R5m3BEoAwjIS0QaE5SvGeZPIaD9YyictYKNTobfeyYNTwnygXVQy",
      "name": "Joaquim dos Santos",
      "nickname": "JocaTheGreat",
      "bio": "testando bio 2",
      "avatar": "https://picsum.photos/200",
      "id": 2
    },
    {
      "email": "siqueirac@gmail.com",
      "password": "$2a$10$QqWgVKQvSU3w4b8aTLRbWulqqxETdh3HVoSlB/kpdw5UyNLirMpBC",
      "name": "Cléverson Siqueira",
      "nickname": "Destroyer44685",
      "bio": "testando bio 2",
      "avatar": "https://picsum.photos/200",
      "id": 3
    },
    {
      "email": "jubjub@gmail.com",
      "password": "$2a$10$0JnW.HWacxzQMurYiFUs3..qx4/kufiYBvzYzw0czd988//1bhxKm",
      "name": "Jubiscleidison Arantes",
      "nickname": "FurãoAlbino",
      "bio": "testando bio 2",
      "avatar": "https://picsum.photos/200",
      "id": 4
    }
  ],
  "promos": [
    {
      "titulo": "Fortnite",
      "plataforma": "Epic",
      "link": "https://www.epicgames.com/fortnite/pt-BR/home",
      "img": "https://cdn02.nintendo-europe.com/media/images/10_share_images/games_15/nintendo_switch_download_software_1/H2x1_NSwitchDS_Fortnite_Chapter2Season5_image1600w.jpg",
      "preco": "FREE",
      "nickname": "Destroyer44685",
      "userId": 3,
      "id": 1
    },
    {
      "titulo": "CounterStrike: Global Offensive",
      "plataforma": "Steam",
      "link": "https://store.steampowered.com/app/730/CounterStrike_Global_Offensive/",
      "img": "https://steamcdn-a.akamaihd.net/steam/apps/730/header.jpg?t=1610576424",
      "preco": "FREE",
      "nickname": "XxCleitinhoGodxX",
      "userId": 1,
      "id": 2
    },
    {
      "titulo": "Battlefield V",
      "plataforma": "Origin",
      "link": "https://www.origin.com/bra/pt-br/store/battlefield/battlefield-v",
      "img": "https://data4.origin.com/asset/content/dam/originx/web/app/games/battlefield/battlefield-v/year-2-edition/BFV_Chapter5_EliteJack_1920x1080.jpg/d0091e23-5424-4e91-82bb-da5d2c80501c/original.jpg",
      "preco": "FREE",
      "nickname": "JocaTheGreat",
      "userId": 2,
      "id": 3
    },
    {
      "titulo": "Grand Theft Auto V",
      "plataforma": "Epic",
      "link": "https://www.epicgames.com/store/pt-BR/product/grand-theft-auto-v/home",
      "img": "https://cdn2.unrealengine.com/Diesel%2Fproductv2%2Fgrand-theft-auto-v%2Fhome%2FGTAV_EGS_Artwork_1920x1080_Hero-Carousel_V06-1920x1080-1503e4b1320d5652dd4f57466c8bcb79424b3fc0.jpg?h=1080&resize=1&w=1920",
      "preco": "FREE",
      "nickname": "XxCleitinhoGodxX",
      "userId": 1,
      "id": 4
    },
    {
      "titulo": "Rocket League",
      "plataforma": "Epic",
      "link": "https://www.epicgames.com/store/pt-BR/product/rocket-league/home",
      "img": "https://cdn2.unrealengine.com/egs-rocketleague-psyonixllc-s5-1920x1080-100a3243bec2.jpg?h=1080&resize=1&w=1920",
      "preco": "FREE",
      "nickname": "Destroyer44685",
      "userId": 3,
      "id": 5
    },
    {
      "titulo": "Star Wars: Jedi Fallen Order",
      "plataforma": "Origin",
      "link": "https://www.origin.com/bra/pt-br/store/star-wars/star-wars-jedi-fallen-order",
      "img": "https://data3.origin.com/asset/content/dam/originx/web/app/games/star-wars/star-wars-jedi-fallen-order/screenshots/cal_saber_ignite_02_v1.jpg/19db0783-2a0a-4ea8-ba85-06a3196948f4/original.jpg",
      "preco": "FREE",
      "nickname": "XxCleitinhoGodxX",
      "userId": 1,
      "id": 6
    },
    {
      "titulo": "Assassin's Creed: Origins",
      "plataforma": "Origin",
      "link": "https://www.origin.com/bra/pt-br/store/assassins-creed/assassins-creed-origins",
      "img": "https://data4.origin.com/asset/content/dam/originx/web/app/games/assassins-creed/assassins-creed-origins/Screenshots/Screenshot1.jpg/356e50d3-8cbd-4f4b-82c7-dfc6b6f44a5a/original.jpg",
      "preco": "FREE",
      "nickname": "XxCleitinhoGodxX",
      "userId": 1,
      "id": 7
    },
    {
      "titulo": "CyberPunk 2077",
      "plataforma": "Steam",
      "link": "https://store.steampowered.com/agecheck/app/1091500/",
      "img": "https://steamcdn-a.akamaihd.net/steam/apps/1091500/header.jpg?t=1608552868",
      "preco": "FREE",
      "nickname": "FurãoAlbino",
      "userId": 4,
      "id": 8
    },
    {
      "titulo": "Star Wars: Battlefront II",
      "plataforma": "Epic",
      "link": "https://www.epicgames.com/store/pt-BR/product/star-wars-battlefront-2/home",
      "img": "https://cdn2.unrealengine.com/egs-starwarsbattlefrontiicelebrationedition-dice-g1a-01-1920x1080-87971829e831.jpg?h=1080&resize=1&w=1920",
      "preco": "FREE",
      "nickname": "FurãoAlbino",
      "userId": 4,
      "id": 9
    }
  ],
  "favorites": []
}
